PWD /Users/luketurcotte/Dropbox/NoSync/TGHC/Assess and Restore/Ethics
INPUT /usr/local/texlive/2015/texmf.cnf
INPUT /usr/local/texlive/2015/texmf-dist/web2c/texmf.cnf
INPUT /usr/local/texlive/2015/texmf-var/web2c/xetex/xelatex.fmt
INPUT 20160517_ConsentForm.txt
OUTPUT latex.out/20160517_ConsentForm.log
INPUT /usr/local/texlive/2015/texmf-dist/tex/latex/base/article.cls
INPUT /usr/local/texlive/2015/texmf-dist/tex/latex/base/article.cls
INPUT /usr/local/texlive/2015/texmf-dist/tex/latex/base/size11.clo
INPUT /usr/local/texlive/2015/texmf-dist/tex/latex/base/size11.clo
INPUT /usr/local/texlive/2015/texmf-dist/fonts/map/fontname/texfonts.map
INPUT /usr/local/texlive/2015/texmf-dist/fonts/tfm/public/cm/cmr10.tfm
INPUT /usr/local/texlive/2015/texmf-dist/tex/latex/microtype/microtype.sty
INPUT /usr/local/texlive/2015/texmf-dist/tex/latex/microtype/microtype.sty
INPUT /usr/local/texlive/2015/texmf-dist/tex/latex/graphics/keyval.sty
INPUT /usr/local/texlive/2015/texmf-dist/tex/latex/graphics/keyval.sty
INPUT /usr/local/texlive/2015/texmf-dist/tex/latex/microtype/microtype-xetex.def
INPUT /usr/local/texlive/2015/texmf-dist/tex/latex/microtype/microtype-xetex.def
INPUT /usr/local/texlive/2015/texmf-dist/tex/latex/microtype/microtype.cfg
INPUT /usr/local/texlive/2015/texmf-dist/tex/latex/microtype/microtype.cfg
INPUT /usr/local/texlive/2015/texmf-dist/tex/latex/microtype/microtype.cfg
INPUT /usr/local/texlive/2015/texmf-dist/tex/latex/hyperref/hyperref.sty
INPUT /usr/local/texlive/2015/texmf-dist/tex/latex/hyperref/hyperref.sty
INPUT /usr/local/texlive/2015/texmf-dist/tex/generic/oberdiek/hobsub-hyperref.sty
INPUT /usr/local/texlive/2015/texmf-dist/tex/generic/oberdiek/hobsub-hyperref.sty
INPUT /usr/local/texlive/2015/texmf-dist/tex/generic/oberdiek/hobsub-hyperref.sty
INPUT /usr/local/texlive/2015/texmf-dist/tex/generic/oberdiek/hobsub-generic.sty
INPUT /usr/local/texlive/2015/texmf-dist/tex/generic/oberdiek/hobsub-generic.sty
INPUT /usr/local/texlive/2015/texmf-dist/tex/generic/ifxetex/ifxetex.sty
INPUT /usr/local/texlive/2015/texmf-dist/tex/generic/ifxetex/ifxetex.sty
INPUT /usr/local/texlive/2015/texmf-dist/tex/latex/oberdiek/auxhook.sty
INPUT /usr/local/texlive/2015/texmf-dist/tex/latex/oberdiek/auxhook.sty
INPUT /usr/local/texlive/2015/texmf-dist/tex/latex/oberdiek/kvoptions.sty
INPUT /usr/local/texlive/2015/texmf-dist/tex/latex/oberdiek/kvoptions.sty
INPUT /usr/local/texlive/2015/texmf-dist/tex/latex/hyperref/pd1enc.def
INPUT /usr/local/texlive/2015/texmf-dist/tex/latex/hyperref/pd1enc.def
INPUT /usr/local/texlive/2015/texmf-dist/tex/latex/latexconfig/hyperref.cfg
INPUT /usr/local/texlive/2015/texmf-dist/tex/latex/latexconfig/hyperref.cfg
INPUT /usr/local/texlive/2015/texmf-dist/tex/latex/url/url.sty
INPUT /usr/local/texlive/2015/texmf-dist/tex/latex/url/url.sty
INPUT /usr/local/texlive/2015/texmf-dist/fonts/tfm/adobe/zapfding/pzdr.tfm
INPUT /usr/local/texlive/2015/texmf-dist/tex/latex/hyperref/hxetex.def
INPUT /usr/local/texlive/2015/texmf-dist/tex/latex/hyperref/hxetex.def
INPUT /usr/local/texlive/2015/texmf-dist/tex/latex/hyperref/puenc.def
INPUT /usr/local/texlive/2015/texmf-dist/tex/latex/hyperref/puenc.def
INPUT /usr/local/texlive/2015/texmf-dist/tex/generic/oberdiek/stringenc.sty
INPUT /usr/local/texlive/2015/texmf-dist/tex/generic/oberdiek/stringenc.sty
INPUT /usr/local/texlive/2015/texmf-dist/tex/latex/oberdiek/rerunfilecheck.sty
INPUT /usr/local/texlive/2015/texmf-dist/tex/latex/oberdiek/rerunfilecheck.sty
INPUT /usr/local/texlive/2015/texmf-dist/tex/latex/wasysym/wasysym.sty
INPUT /usr/local/texlive/2015/texmf-dist/tex/latex/wasysym/wasysym.sty
INPUT /usr/local/texlive/2015/texmf-dist/tex/latex/titlesec/titlesec.sty
INPUT /usr/local/texlive/2015/texmf-dist/tex/latex/titlesec/titlesec.sty
INPUT /usr/local/texlive/2015/texmf-dist/tex/latex/parskip/parskip.sty
INPUT /usr/local/texlive/2015/texmf-dist/tex/latex/parskip/parskip.sty
INPUT /usr/local/texlive/2015/texmf-dist/tex/latex/caption/caption.sty
INPUT /usr/local/texlive/2015/texmf-dist/tex/latex/caption/caption.sty
INPUT /usr/local/texlive/2015/texmf-dist/tex/latex/caption/caption3.sty
INPUT /usr/local/texlive/2015/texmf-dist/tex/latex/caption/caption3.sty
INPUT /usr/local/texlive/2015/texmf-dist/tex/latex/caption/subcaption.sty
INPUT /usr/local/texlive/2015/texmf-dist/tex/latex/caption/subcaption.sty
INPUT /usr/local/texlive/2015/texmf-dist/tex/latex/setspace/setspace.sty
INPUT /usr/local/texlive/2015/texmf-dist/tex/latex/setspace/setspace.sty
INPUT /usr/local/texlive/2015/texmf-dist/tex/latex/tools/indentfirst.sty
INPUT /usr/local/texlive/2015/texmf-dist/tex/latex/tools/indentfirst.sty
INPUT /usr/local/texlive/2015/texmf-dist/tex/latex/geometry/geometry.sty
INPUT /usr/local/texlive/2015/texmf-dist/tex/latex/geometry/geometry.sty
INPUT /usr/local/texlive/2015/texmf-dist/tex/latex/fancyhdr/fancyhdr.sty
INPUT /usr/local/texlive/2015/texmf-dist/tex/latex/fancyhdr/fancyhdr.sty
INPUT latex.out/20160517_ConsentForm.aux
INPUT latex.out/20160517_ConsentForm.aux
OUTPUT latex.out/20160517_ConsentForm.aux
INPUT /usr/local/texlive/2015/texmf-dist/tex/latex/microtype/mt-cmr.cfg
INPUT /usr/local/texlive/2015/texmf-dist/tex/latex/microtype/mt-cmr.cfg
INPUT /usr/local/texlive/2015/texmf-dist/tex/latex/hyperref/nameref.sty
INPUT /usr/local/texlive/2015/texmf-dist/tex/latex/hyperref/nameref.sty
INPUT /usr/local/texlive/2015/texmf-dist/tex/generic/oberdiek/gettitlestring.sty
INPUT /usr/local/texlive/2015/texmf-dist/tex/generic/oberdiek/gettitlestring.sty
INPUT latex.out/20160517_ConsentForm.out
INPUT latex.out/20160517_ConsentForm.out
INPUT latex.out/20160517_ConsentForm.out
INPUT latex.out/20160517_ConsentForm.out
OUTPUT latex.out/20160517_ConsentForm.out
INPUT /usr/local/texlive/2015/texmf-dist/fonts/tfm/public/cm/cmbx10.tfm
INPUT /usr/local/texlive/2015/texmf-dist/fonts/tfm/public/cm/cmr8.tfm
INPUT /usr/local/texlive/2015/texmf-dist/fonts/tfm/public/cm/cmr6.tfm
INPUT /usr/local/texlive/2015/texmf-dist/fonts/tfm/public/cm/cmmi10.tfm
INPUT /usr/local/texlive/2015/texmf-dist/fonts/tfm/public/cm/cmmi8.tfm
INPUT /usr/local/texlive/2015/texmf-dist/fonts/tfm/public/cm/cmmi6.tfm
INPUT /usr/local/texlive/2015/texmf-dist/fonts/tfm/public/cm/cmsy10.tfm
INPUT /usr/local/texlive/2015/texmf-dist/fonts/tfm/public/cm/cmsy8.tfm
INPUT /usr/local/texlive/2015/texmf-dist/fonts/tfm/public/cm/cmsy6.tfm
INPUT /usr/local/texlive/2015/texmf-dist/tex/latex/wasysym/uwasy.fd
INPUT /usr/local/texlive/2015/texmf-dist/tex/latex/wasysym/uwasy.fd
INPUT /usr/local/texlive/2015/texmf-dist/fonts/tfm/public/wasy/wasy10.tfm
INPUT /usr/local/texlive/2015/texmf-dist/fonts/tfm/public/wasy/wasy8.tfm
INPUT /usr/local/texlive/2015/texmf-dist/fonts/tfm/public/wasy/wasy6.tfm
INPUT /usr/local/texlive/2015/texmf-dist/fonts/tfm/public/cm/cmr9.tfm
INPUT /usr/local/texlive/2015/texmf-dist/tex/generic/oberdiek/se-ascii-print.def
INPUT /usr/local/texlive/2015/texmf-dist/tex/generic/oberdiek/se-ascii-print.def
INPUT /usr/local/texlive/2015/texmf-dist/tex/generic/oberdiek/se-ascii-print.def
INPUT latex.out/20160517_ConsentForm.aux
