\relax 
\providecommand\hyper@newdestlabel[2]{}
\providecommand\HyperFirstAtBeginDocument{\AtBeginDocument}
\HyperFirstAtBeginDocument{\ifx\hyper@anchor\@undefined
\global\let\oldcontentsline\contentsline
\gdef\contentsline#1#2#3#4{\oldcontentsline{#1}{#2}{#3}}
\global\let\oldnewlabel\newlabel
\gdef\newlabel#1#2{\newlabelxx{#1}#2}
\gdef\newlabelxx#1#2#3#4#5#6{\oldnewlabel{#1}{{#2}{#3}}}
\AtEndDocument{\ifx\hyper@anchor\@undefined
\let\contentsline\oldcontentsline
\let\newlabel\oldnewlabel
\fi}
\fi}
\global\let\hyper@last\relax 
\gdef\HyperFirstAtBeginDocument#1{#1}
\providecommand*\HyPL@Entry[1]{}
\AC@reset@newl@bel
\HyPL@Entry{0<</S/D>>}
\@writefile{toc}{\contentsline {section}{\numberline {1}Start-Up Phase}{1}{section.1}}
\@writefile{toc}{\contentsline {section}{\numberline {2}Obtaining Consent to Participate}{1}{section.2}}
\@writefile{toc}{\contentsline {section}{\numberline {3}Data Collection Phase}{2}{section.3}}
\@writefile{toc}{\contentsline {subsection}{\numberline {3.1}Notifying Research Assistant of Patient Discharges}{2}{subsection.3.1}}
\@writefile{toc}{\contentsline {subsection}{\numberline {3.2}Obtaining Patient and Primary Caregiver Home Phone Number}{2}{subsection.3.2}}
\@writefile{toc}{\contentsline {subsection}{\numberline {3.3}Conducting Patient Interviews in Hospital}{3}{subsection.3.3}}
\@writefile{toc}{\contentsline {subsection}{\numberline {3.4}Conducting Patient Follow-up Interviews in Home}{4}{subsection.3.4}}
\@writefile{toc}{\contentsline {subsection}{\numberline {3.5}Conducting Primary Caregiver Interviews in Hospital}{4}{subsection.3.5}}
\@writefile{toc}{\contentsline {subsection}{\numberline {3.6}Conducting Primary Caregiver Follow-Up Interviews at Home}{5}{subsection.3.6}}
\@writefile{toc}{\contentsline {section}{\numberline {4}Data Management Phase}{6}{section.4}}
\@writefile{toc}{\contentsline {subsection}{\numberline {4.1}Paper Surveys and Consent Forms}{6}{subsection.4.1}}
\@writefile{toc}{\contentsline {subsection}{\numberline {4.2}Digital Audio Recordings}{6}{subsection.4.2}}
\@writefile{toc}{\contentsline {section}{\numberline {5}Data Analysis and Reporting}{7}{section.5}}
\@writefile{toc}{\contentsline {section}{\numberline {6}Data Storage and Destruction}{7}{section.6}}
